{
    "openapi": "3.0.0",
    "info": {
        "title": "RentX Documentation",
        "description": "API for ranting cars",
        "version": "1.0.0",
        "contact" : {
            "email": "jalmeidacn@gmail.com"
        }
    }
}